G75*
%MOIN*%
%OFA0B0*%
%FSLAX24Y24*%
%IPPOS*%
%LPD*%
%AMOC8*
5,1,8,0,0,1.08239X$1,22.5*
%
%ADD10C,0.0000*%
%ADD11C,0.0740*%
%ADD12OC8,0.0740*%
%ADD13R,0.0740X0.0740*%
%ADD14C,0.1095*%
%ADD15R,0.1600X0.1600*%
%ADD16C,0.0350*%
%ADD17C,0.0160*%
%ADD18C,0.0356*%
%ADD19C,0.0120*%
D10*
X000463Y001648D02*
X000467Y012773D01*
X020083Y012769D01*
X020083Y001648D01*
X000463Y001648D01*
X002286Y005459D02*
X002288Y005485D01*
X002294Y005511D01*
X002304Y005536D01*
X002317Y005559D01*
X002333Y005579D01*
X002353Y005597D01*
X002375Y005612D01*
X002398Y005624D01*
X002424Y005632D01*
X002450Y005636D01*
X002476Y005636D01*
X002502Y005632D01*
X002528Y005624D01*
X002552Y005612D01*
X002573Y005597D01*
X002593Y005579D01*
X002609Y005559D01*
X002622Y005536D01*
X002632Y005511D01*
X002638Y005485D01*
X002640Y005459D01*
X002638Y005433D01*
X002632Y005407D01*
X002622Y005382D01*
X002609Y005359D01*
X002593Y005339D01*
X002573Y005321D01*
X002551Y005306D01*
X002528Y005294D01*
X002502Y005286D01*
X002476Y005282D01*
X002450Y005282D01*
X002424Y005286D01*
X002398Y005294D01*
X002374Y005306D01*
X002353Y005321D01*
X002333Y005339D01*
X002317Y005359D01*
X002304Y005382D01*
X002294Y005407D01*
X002288Y005433D01*
X002286Y005459D01*
X002286Y006837D02*
X002288Y006863D01*
X002294Y006889D01*
X002304Y006914D01*
X002317Y006937D01*
X002333Y006957D01*
X002353Y006975D01*
X002375Y006990D01*
X002398Y007002D01*
X002424Y007010D01*
X002450Y007014D01*
X002476Y007014D01*
X002502Y007010D01*
X002528Y007002D01*
X002552Y006990D01*
X002573Y006975D01*
X002593Y006957D01*
X002609Y006937D01*
X002622Y006914D01*
X002632Y006889D01*
X002638Y006863D01*
X002640Y006837D01*
X002638Y006811D01*
X002632Y006785D01*
X002622Y006760D01*
X002609Y006737D01*
X002593Y006717D01*
X002573Y006699D01*
X002551Y006684D01*
X002528Y006672D01*
X002502Y006664D01*
X002476Y006660D01*
X002450Y006660D01*
X002424Y006664D01*
X002398Y006672D01*
X002374Y006684D01*
X002353Y006699D01*
X002333Y006717D01*
X002317Y006737D01*
X002304Y006760D01*
X002294Y006785D01*
X002288Y006811D01*
X002286Y006837D01*
D11*
X005713Y002398D03*
X006713Y002398D03*
X007713Y002398D03*
X008713Y002398D03*
X009713Y002398D03*
X010713Y002398D03*
X012213Y002398D03*
X013213Y002398D03*
X014213Y002398D03*
X015213Y002398D03*
X016213Y002398D03*
X017213Y002398D03*
X018213Y002398D03*
X018463Y011773D03*
X019463Y011773D03*
X016213Y011773D03*
X013963Y011773D03*
X012963Y011773D03*
X010713Y011773D03*
X008463Y011773D03*
X007463Y011773D03*
X002213Y011773D03*
D12*
X018213Y007773D03*
X019213Y007773D03*
X019213Y006773D03*
X018213Y006773D03*
X018213Y005773D03*
X019213Y005773D03*
X019213Y004773D03*
X018213Y004773D03*
D13*
X019213Y002398D03*
X017463Y011773D03*
X015213Y011773D03*
X011963Y011773D03*
X009713Y011773D03*
X006463Y011773D03*
X001213Y011773D03*
D14*
X003540Y011282D02*
X004635Y011282D01*
X004635Y003014D02*
X003540Y003014D01*
D15*
X004088Y007148D03*
D16*
X010338Y006023D03*
D17*
X009983Y005967D02*
X009983Y006093D01*
X010037Y006224D01*
X010137Y006324D01*
X010267Y006378D01*
X010408Y006378D01*
X010539Y006324D01*
X010639Y006224D01*
X010693Y006093D01*
X010693Y005952D01*
X010639Y005822D01*
X010539Y005722D01*
X010408Y005668D01*
X010282Y005668D01*
X012562Y003388D01*
X013511Y003388D01*
X013599Y003351D01*
X013666Y003284D01*
X013666Y003284D01*
X014032Y002918D01*
X014103Y002948D01*
X014322Y002948D01*
X014524Y002864D01*
X014679Y002709D01*
X014713Y002628D01*
X014747Y002709D01*
X014901Y002864D01*
X014973Y002894D01*
X014973Y004923D01*
X013482Y006415D01*
X013392Y006415D01*
X013260Y006469D01*
X013159Y006570D01*
X013105Y006702D01*
X013105Y006844D01*
X013159Y006976D01*
X013236Y007052D01*
X013135Y007094D01*
X013034Y007195D01*
X012980Y007327D01*
X012980Y007469D01*
X013034Y007601D01*
X013135Y007701D01*
X013267Y007756D01*
X013409Y007756D01*
X013541Y007701D01*
X013641Y007601D01*
X013696Y007469D01*
X013696Y007379D01*
X015666Y005409D01*
X015703Y005321D01*
X015703Y003247D01*
X016032Y002918D01*
X016103Y002948D01*
X016322Y002948D01*
X016524Y002864D01*
X016679Y002709D01*
X016713Y002628D01*
X016747Y002709D01*
X016901Y002864D01*
X017103Y002948D01*
X017322Y002948D01*
X017524Y002864D01*
X017679Y002709D01*
X017713Y002628D01*
X017747Y002709D01*
X017901Y002864D01*
X018103Y002948D01*
X018322Y002948D01*
X018524Y002864D01*
X018663Y002726D01*
X018663Y002842D01*
X018768Y002948D01*
X019657Y002948D01*
X019763Y002842D01*
X019763Y001953D01*
X019657Y001848D01*
X018768Y001848D01*
X018663Y001953D01*
X018663Y002070D01*
X018524Y001932D01*
X018322Y001848D01*
X018103Y001848D01*
X017901Y001932D01*
X017747Y002086D01*
X017713Y002168D01*
X017679Y002086D01*
X017524Y001932D01*
X017322Y001848D01*
X017103Y001848D01*
X016901Y001932D01*
X016747Y002086D01*
X016713Y002168D01*
X016679Y002086D01*
X016524Y001932D01*
X016322Y001848D01*
X016103Y001848D01*
X015901Y001932D01*
X015747Y002086D01*
X015713Y002168D01*
X015679Y002086D01*
X015524Y001932D01*
X015322Y001848D01*
X015103Y001848D01*
X014901Y001932D01*
X014747Y002086D01*
X014713Y002168D01*
X014679Y002086D01*
X014524Y001932D01*
X014322Y001848D01*
X014103Y001848D01*
X013901Y001932D01*
X013747Y002086D01*
X013713Y002168D01*
X013679Y002086D01*
X013524Y001932D01*
X013322Y001848D01*
X013103Y001848D01*
X012901Y001932D01*
X012747Y002086D01*
X012713Y002168D01*
X012679Y002086D01*
X012524Y001932D01*
X012322Y001848D01*
X012103Y001848D01*
X011901Y001932D01*
X011747Y002086D01*
X011663Y002288D01*
X011663Y002507D01*
X011722Y002651D01*
X011666Y002594D01*
X011534Y002540D01*
X011392Y002540D01*
X011260Y002594D01*
X011203Y002651D01*
X011263Y002507D01*
X011263Y002288D01*
X011179Y002086D01*
X011024Y001932D01*
X010822Y001848D01*
X010603Y001848D01*
X010401Y001932D01*
X010247Y002086D01*
X010213Y002168D01*
X010179Y002086D01*
X010024Y001932D01*
X009822Y001848D01*
X009603Y001848D01*
X009401Y001932D01*
X009247Y002086D01*
X009213Y002168D01*
X009179Y002086D01*
X009024Y001932D01*
X008822Y001848D01*
X008603Y001848D01*
X008401Y001932D01*
X008247Y002086D01*
X008213Y002168D01*
X008179Y002086D01*
X008024Y001932D01*
X007822Y001848D01*
X007603Y001848D01*
X007401Y001932D01*
X007247Y002086D01*
X007213Y002168D01*
X007183Y002110D01*
X007132Y002040D01*
X007071Y001978D01*
X007001Y001927D01*
X006924Y001888D01*
X006842Y001861D01*
X006756Y001848D01*
X006733Y001848D01*
X006733Y002378D01*
X006693Y002378D01*
X006693Y001848D01*
X006670Y001848D01*
X006584Y001861D01*
X006502Y001888D01*
X006425Y001927D01*
X006355Y001978D01*
X006293Y002040D01*
X006242Y002110D01*
X006213Y002168D01*
X006183Y002110D01*
X006132Y002040D01*
X006071Y001978D01*
X006001Y001927D01*
X005924Y001888D01*
X005842Y001861D01*
X005756Y001848D01*
X005733Y001848D01*
X005733Y002378D01*
X005733Y002418D01*
X006263Y002418D01*
X006693Y002418D01*
X006693Y002948D01*
X006670Y002948D01*
X006584Y002934D01*
X006502Y002908D01*
X006425Y002868D01*
X006355Y002817D01*
X006293Y002756D01*
X006242Y002686D01*
X006213Y002628D01*
X006183Y002686D01*
X006132Y002756D01*
X006071Y002817D01*
X006001Y002868D01*
X005924Y002908D01*
X005842Y002934D01*
X005756Y002948D01*
X005733Y002948D01*
X005733Y002418D01*
X005693Y002418D01*
X005693Y002948D01*
X005670Y002948D01*
X005584Y002934D01*
X005502Y002908D01*
X005425Y002868D01*
X005355Y002817D01*
X005332Y002795D01*
X005363Y002869D01*
X005363Y003159D01*
X005252Y003426D01*
X005047Y003631D01*
X004780Y003741D01*
X003396Y003741D01*
X003128Y003631D01*
X002924Y003426D01*
X002813Y003159D01*
X002813Y002869D01*
X002924Y002602D01*
X003128Y002397D01*
X003396Y002286D01*
X004780Y002286D01*
X005047Y002397D01*
X005176Y002526D01*
X005163Y002441D01*
X005163Y002418D01*
X005693Y002418D01*
X005693Y002378D01*
X005733Y002378D01*
X006693Y002378D01*
X006693Y002418D01*
X006733Y002418D01*
X006733Y002948D01*
X006756Y002948D01*
X006842Y002934D01*
X006924Y002908D01*
X007001Y002868D01*
X007071Y002817D01*
X007132Y002756D01*
X007183Y002686D01*
X007213Y002628D01*
X007247Y002709D01*
X007401Y002864D01*
X007603Y002948D01*
X007822Y002948D01*
X008024Y002864D01*
X008179Y002709D01*
X008213Y002628D01*
X008247Y002709D01*
X008401Y002864D01*
X008603Y002948D01*
X008822Y002948D01*
X009024Y002864D01*
X009179Y002709D01*
X009213Y002628D01*
X009247Y002709D01*
X009401Y002864D01*
X009603Y002948D01*
X009733Y002948D01*
X009497Y003158D01*
X008290Y003158D01*
X008202Y003194D01*
X008107Y003290D01*
X008017Y003290D01*
X007885Y003344D01*
X007784Y003445D01*
X007730Y003577D01*
X007730Y003719D01*
X007784Y003851D01*
X007885Y003951D01*
X008017Y004006D01*
X008159Y004006D01*
X008291Y003951D01*
X008391Y003851D01*
X008446Y003719D01*
X008446Y003638D01*
X009581Y003638D01*
X009621Y003640D01*
X009628Y003638D01*
X009636Y003638D01*
X009673Y003622D01*
X009712Y003609D01*
X009717Y003604D01*
X009724Y003601D01*
X009753Y003573D01*
X010502Y002906D01*
X010603Y002948D01*
X010822Y002948D01*
X011024Y002864D01*
X011135Y002753D01*
X011105Y002827D01*
X011105Y002888D01*
X010078Y003915D01*
X010017Y003915D01*
X009885Y003969D01*
X009784Y004070D01*
X009730Y004202D01*
X009730Y004344D01*
X009784Y004476D01*
X009885Y004576D01*
X009927Y004594D01*
X008827Y005694D01*
X008759Y005762D01*
X008723Y005850D01*
X008723Y007071D01*
X008759Y007159D01*
X009230Y007629D01*
X009230Y007719D01*
X009284Y007851D01*
X009385Y007951D01*
X009517Y008006D01*
X009659Y008006D01*
X009791Y007951D01*
X009891Y007851D01*
X009946Y007719D01*
X009946Y007577D01*
X009897Y007459D01*
X009916Y007451D01*
X010016Y007351D01*
X010056Y007256D01*
X010159Y007256D01*
X010291Y007201D01*
X010391Y007101D01*
X010446Y006969D01*
X010446Y006827D01*
X010391Y006695D01*
X010291Y006594D01*
X010159Y006540D01*
X010069Y006540D01*
X009953Y006423D01*
X009953Y005997D01*
X009983Y005967D01*
X009983Y006086D02*
X009953Y006086D01*
X009953Y006244D02*
X010057Y006244D01*
X009953Y006403D02*
X012003Y006403D01*
X012009Y006387D02*
X012077Y006319D01*
X012230Y006167D01*
X012230Y006077D01*
X012284Y005945D01*
X012385Y005844D01*
X012517Y005790D01*
X012659Y005790D01*
X012791Y005844D01*
X012891Y005945D01*
X012946Y006077D01*
X012946Y006219D01*
X012891Y006351D01*
X012791Y006451D01*
X012659Y006506D01*
X012569Y006506D01*
X012453Y006622D01*
X012453Y007316D01*
X012517Y007290D01*
X012659Y007290D01*
X012791Y007344D01*
X012891Y007445D01*
X012946Y007577D01*
X012946Y007667D01*
X014254Y008975D01*
X014260Y008969D01*
X014392Y008915D01*
X014534Y008915D01*
X014666Y008969D01*
X014766Y009070D01*
X014821Y009202D01*
X014821Y009344D01*
X014766Y009476D01*
X014666Y009576D01*
X014534Y009631D01*
X014392Y009631D01*
X014260Y009576D01*
X014196Y009513D01*
X014165Y009513D01*
X014077Y009476D01*
X014009Y009409D01*
X012607Y008006D01*
X012517Y008006D01*
X012453Y007980D01*
X012453Y010809D01*
X012820Y011237D01*
X012853Y011223D01*
X013072Y011223D01*
X013274Y011307D01*
X013429Y011461D01*
X013463Y011543D01*
X013492Y011485D01*
X013543Y011415D01*
X013605Y011353D01*
X013675Y011302D01*
X013752Y011263D01*
X013834Y011236D01*
X013920Y011223D01*
X013943Y011223D01*
X013943Y011753D01*
X013983Y011753D01*
X013983Y011793D01*
X014513Y011793D01*
X014513Y011816D01*
X014499Y011902D01*
X014473Y011984D01*
X014433Y012061D01*
X014382Y012131D01*
X014356Y012158D01*
X014663Y012158D01*
X014663Y011328D01*
X014768Y011223D01*
X015395Y011223D01*
X015855Y010763D01*
X014229Y010763D01*
X014166Y010826D01*
X014034Y010881D01*
X013892Y010881D01*
X013760Y010826D01*
X013659Y010726D01*
X013605Y010594D01*
X013605Y010452D01*
X013659Y010320D01*
X013760Y010219D01*
X013892Y010165D01*
X014034Y010165D01*
X014166Y010219D01*
X014229Y010283D01*
X017196Y010283D01*
X017260Y010219D01*
X017392Y010165D01*
X017534Y010165D01*
X017666Y010219D01*
X017766Y010320D01*
X017821Y010452D01*
X017821Y010594D01*
X017803Y010638D01*
X019105Y010638D01*
X019203Y010540D01*
X019203Y009381D01*
X019071Y009249D01*
X019071Y009344D01*
X019016Y009476D01*
X018916Y009576D01*
X018784Y009631D01*
X018642Y009631D01*
X018510Y009576D01*
X018446Y009513D01*
X018004Y009513D01*
X017998Y009515D01*
X017957Y009513D01*
X017915Y009513D01*
X017909Y009510D01*
X017903Y009510D01*
X017865Y009492D01*
X017827Y009476D01*
X017822Y009472D01*
X017816Y009469D01*
X017789Y009438D01*
X017759Y009409D01*
X017757Y009403D01*
X015712Y007131D01*
X015642Y007131D01*
X015510Y007076D01*
X015409Y006976D01*
X015355Y006844D01*
X015355Y006702D01*
X015409Y006570D01*
X015510Y006469D01*
X015642Y006415D01*
X015784Y006415D01*
X015916Y006469D01*
X016016Y006570D01*
X016071Y006702D01*
X016071Y006812D01*
X017078Y007931D01*
X017078Y005096D01*
X017117Y005001D01*
X017191Y004927D01*
X017566Y004552D01*
X017661Y004513D01*
X017695Y004513D01*
X017985Y004223D01*
X018441Y004223D01*
X018713Y004495D01*
X018985Y004223D01*
X019193Y004223D01*
X019193Y004753D01*
X019233Y004753D01*
X019233Y004793D01*
X019763Y004793D01*
X019763Y005001D01*
X019491Y005273D01*
X019763Y005545D01*
X019763Y006001D01*
X019491Y006273D01*
X019763Y006545D01*
X019763Y007001D01*
X019491Y007273D01*
X019763Y007545D01*
X019763Y008001D01*
X019441Y008323D01*
X018985Y008323D01*
X018713Y008051D01*
X018441Y008323D01*
X017985Y008323D01*
X017663Y008001D01*
X017663Y007545D01*
X017935Y007273D01*
X017663Y007001D01*
X017663Y006545D01*
X017935Y006273D01*
X017663Y006001D01*
X017663Y005545D01*
X017935Y005273D01*
X017758Y005096D01*
X017598Y005256D01*
X017598Y008054D01*
X018085Y008638D01*
X019140Y008638D01*
X019235Y008677D01*
X019610Y009052D01*
X019683Y009126D01*
X019723Y009221D01*
X019723Y010700D01*
X019683Y010795D01*
X019433Y011045D01*
X019360Y011118D01*
X019265Y011158D01*
X016196Y011158D01*
X016131Y011223D01*
X016322Y011223D01*
X016524Y011307D01*
X016679Y011461D01*
X016763Y011663D01*
X016763Y011882D01*
X016679Y012084D01*
X016606Y012158D01*
X016913Y012158D01*
X016913Y011328D01*
X017018Y011223D01*
X017907Y011223D01*
X018013Y011328D01*
X018013Y011445D01*
X018151Y011307D01*
X018353Y011223D01*
X018572Y011223D01*
X018774Y011307D01*
X018929Y011461D01*
X018963Y011543D01*
X018992Y011485D01*
X019043Y011415D01*
X019105Y011353D01*
X019175Y011302D01*
X019252Y011263D01*
X019334Y011236D01*
X019420Y011223D01*
X019443Y011223D01*
X019443Y011753D01*
X019483Y011753D01*
X019483Y011223D01*
X019506Y011223D01*
X019592Y011236D01*
X019674Y011263D01*
X019751Y011302D01*
X019821Y011353D01*
X019882Y011415D01*
X019903Y011443D01*
X019903Y001828D01*
X000643Y001828D01*
X000647Y012593D01*
X013441Y012590D01*
X013384Y012534D01*
X013144Y012293D01*
X013072Y012323D01*
X012853Y012323D01*
X012651Y012239D01*
X012513Y012101D01*
X012513Y012217D01*
X012407Y012323D01*
X011518Y012323D01*
X011413Y012217D01*
X011413Y011328D01*
X011518Y011223D01*
X012175Y011223D01*
X012078Y011110D01*
X012011Y011138D01*
X008437Y011138D01*
X008340Y011236D01*
X008420Y011223D01*
X008443Y011223D01*
X008443Y011753D01*
X008483Y011753D01*
X008483Y011793D01*
X009013Y011793D01*
X009013Y011816D01*
X008999Y011902D01*
X008973Y011984D01*
X008933Y012061D01*
X008882Y012131D01*
X008821Y012192D01*
X008751Y012243D01*
X008674Y012283D01*
X008592Y012309D01*
X008506Y012323D01*
X008483Y012323D01*
X008483Y011793D01*
X008443Y011793D01*
X008443Y012323D01*
X008420Y012323D01*
X008334Y012309D01*
X008252Y012283D01*
X008175Y012243D01*
X008105Y012192D01*
X008043Y012131D01*
X007992Y012061D01*
X007963Y012003D01*
X007929Y012084D01*
X007774Y012239D01*
X007572Y012323D01*
X007353Y012323D01*
X007151Y012239D01*
X007013Y012101D01*
X007013Y012217D01*
X006907Y012323D01*
X006018Y012323D01*
X005913Y012217D01*
X005913Y011328D01*
X006018Y011223D01*
X006907Y011223D01*
X007013Y011328D01*
X007013Y011445D01*
X007151Y011307D01*
X007353Y011223D01*
X007572Y011223D01*
X007644Y011252D01*
X008134Y010762D01*
X008202Y010694D01*
X008290Y010658D01*
X011863Y010658D01*
X011973Y010548D01*
X011973Y006475D01*
X012009Y006387D01*
X012152Y006244D02*
X010618Y006244D01*
X010693Y006086D02*
X012230Y006086D01*
X012302Y005927D02*
X010683Y005927D01*
X010586Y005769D02*
X014127Y005769D01*
X013969Y005927D02*
X012874Y005927D01*
X012946Y006086D02*
X013810Y006086D01*
X013652Y006244D02*
X012935Y006244D01*
X012839Y006403D02*
X013493Y006403D01*
X013168Y006561D02*
X012514Y006561D01*
X012453Y006720D02*
X013105Y006720D01*
X013119Y006878D02*
X012453Y006878D01*
X012453Y007037D02*
X013220Y007037D01*
X013034Y007195D02*
X012453Y007195D01*
X012800Y007354D02*
X012980Y007354D01*
X012998Y007512D02*
X012919Y007512D01*
X012950Y007671D02*
X013104Y007671D01*
X013109Y007829D02*
X016341Y007829D01*
X016198Y007671D02*
X013571Y007671D01*
X013678Y007512D02*
X016056Y007512D01*
X015913Y007354D02*
X013721Y007354D01*
X013880Y007195D02*
X015770Y007195D01*
X015470Y007037D02*
X014038Y007037D01*
X014197Y006878D02*
X015369Y006878D01*
X015355Y006720D02*
X014355Y006720D01*
X014514Y006561D02*
X015418Y006561D01*
X016008Y006561D02*
X017078Y006561D01*
X017078Y006720D02*
X016071Y006720D01*
X016131Y006878D02*
X017078Y006878D01*
X017078Y007037D02*
X016273Y007037D01*
X016416Y007195D02*
X017078Y007195D01*
X017078Y007354D02*
X016559Y007354D01*
X016701Y007512D02*
X017078Y007512D01*
X017078Y007671D02*
X016844Y007671D01*
X016987Y007829D02*
X017078Y007829D01*
X017598Y007829D02*
X017663Y007829D01*
X017663Y007671D02*
X017598Y007671D01*
X017598Y007512D02*
X017696Y007512D01*
X017598Y007354D02*
X017854Y007354D01*
X017858Y007195D02*
X017598Y007195D01*
X017598Y007037D02*
X017699Y007037D01*
X017663Y006878D02*
X017598Y006878D01*
X017598Y006720D02*
X017663Y006720D01*
X017663Y006561D02*
X017598Y006561D01*
X017598Y006403D02*
X017805Y006403D01*
X017907Y006244D02*
X017598Y006244D01*
X017598Y006086D02*
X017748Y006086D01*
X017663Y005927D02*
X017598Y005927D01*
X017598Y005769D02*
X017663Y005769D01*
X017663Y005610D02*
X017598Y005610D01*
X017598Y005452D02*
X017756Y005452D01*
X017598Y005293D02*
X017915Y005293D01*
X017797Y005135D02*
X017719Y005135D01*
X017713Y004773D02*
X017338Y005148D01*
X017338Y008148D01*
X017963Y008898D01*
X019088Y008898D01*
X019463Y009273D01*
X019463Y010648D01*
X019213Y010898D01*
X016088Y010898D01*
X015213Y011773D01*
X014663Y011792D02*
X013983Y011792D01*
X013983Y011753D02*
X014513Y011753D01*
X014513Y011730D01*
X014499Y011644D01*
X014473Y011562D01*
X014433Y011485D01*
X014382Y011415D01*
X014321Y011353D01*
X014251Y011302D01*
X014174Y011263D01*
X014092Y011236D01*
X014006Y011223D01*
X013983Y011223D01*
X013983Y011753D01*
X013983Y011633D02*
X013943Y011633D01*
X013943Y011475D02*
X013983Y011475D01*
X013983Y011316D02*
X013943Y011316D01*
X013655Y011316D02*
X013284Y011316D01*
X013435Y011475D02*
X013499Y011475D01*
X012752Y011158D02*
X015460Y011158D01*
X015619Y010999D02*
X012616Y010999D01*
X012480Y010841D02*
X013795Y010841D01*
X013641Y010682D02*
X012453Y010682D01*
X012453Y010524D02*
X013605Y010524D01*
X013640Y010365D02*
X012453Y010365D01*
X012453Y010207D02*
X013790Y010207D01*
X014136Y010207D02*
X017290Y010207D01*
X017636Y010207D02*
X019203Y010207D01*
X019203Y010048D02*
X012453Y010048D01*
X012453Y009890D02*
X019203Y009890D01*
X019203Y009731D02*
X012453Y009731D01*
X012453Y009573D02*
X014256Y009573D01*
X014015Y009414D02*
X012453Y009414D01*
X012453Y009256D02*
X013856Y009256D01*
X013698Y009097D02*
X012453Y009097D01*
X012453Y008939D02*
X013539Y008939D01*
X013381Y008780D02*
X012453Y008780D01*
X012453Y008622D02*
X013222Y008622D01*
X013064Y008463D02*
X012453Y008463D01*
X012453Y008305D02*
X012905Y008305D01*
X012747Y008146D02*
X012453Y008146D01*
X012453Y007988D02*
X012473Y007988D01*
X011973Y007988D02*
X009703Y007988D01*
X009900Y007829D02*
X011973Y007829D01*
X011973Y007671D02*
X009946Y007671D01*
X009919Y007512D02*
X011973Y007512D01*
X011973Y007354D02*
X010013Y007354D01*
X010297Y007195D02*
X011973Y007195D01*
X011973Y007037D02*
X010418Y007037D01*
X010446Y006878D02*
X011973Y006878D01*
X011973Y006720D02*
X010402Y006720D01*
X010211Y006561D02*
X011973Y006561D01*
X010340Y005610D02*
X014286Y005610D01*
X014444Y005452D02*
X010498Y005452D01*
X010657Y005293D02*
X014603Y005293D01*
X014761Y005135D02*
X010815Y005135D01*
X010974Y004976D02*
X014920Y004976D01*
X014973Y004818D02*
X011132Y004818D01*
X011291Y004659D02*
X014973Y004659D01*
X014973Y004501D02*
X011449Y004501D01*
X011608Y004342D02*
X014973Y004342D01*
X014973Y004184D02*
X011766Y004184D01*
X011925Y004025D02*
X014973Y004025D01*
X014973Y003867D02*
X012083Y003867D01*
X012242Y003708D02*
X014973Y003708D01*
X014973Y003550D02*
X012400Y003550D01*
X012559Y003391D02*
X014973Y003391D01*
X014973Y003233D02*
X013717Y003233D01*
X013876Y003074D02*
X014973Y003074D01*
X014973Y002916D02*
X014399Y002916D01*
X014631Y002757D02*
X014795Y002757D01*
X015717Y003233D02*
X019903Y003233D01*
X019903Y003391D02*
X015703Y003391D01*
X015703Y003550D02*
X019903Y003550D01*
X019903Y003708D02*
X015703Y003708D01*
X015703Y003867D02*
X019903Y003867D01*
X019903Y004025D02*
X015703Y004025D01*
X015703Y004184D02*
X019903Y004184D01*
X019903Y004342D02*
X019560Y004342D01*
X019441Y004223D02*
X019233Y004223D01*
X019233Y004753D01*
X019763Y004753D01*
X019763Y004545D01*
X019441Y004223D01*
X019233Y004342D02*
X019193Y004342D01*
X019193Y004501D02*
X019233Y004501D01*
X019233Y004659D02*
X019193Y004659D01*
X018866Y004342D02*
X018560Y004342D01*
X018213Y004773D02*
X017713Y004773D01*
X017459Y004659D02*
X015703Y004659D01*
X015703Y004501D02*
X017707Y004501D01*
X017866Y004342D02*
X015703Y004342D01*
X015703Y004818D02*
X017300Y004818D01*
X017142Y004976D02*
X015703Y004976D01*
X015703Y005135D02*
X017078Y005135D01*
X017078Y005293D02*
X015703Y005293D01*
X015623Y005452D02*
X017078Y005452D01*
X017078Y005610D02*
X015465Y005610D01*
X015306Y005769D02*
X017078Y005769D01*
X017078Y005927D02*
X015148Y005927D01*
X014989Y006086D02*
X017078Y006086D01*
X017078Y006244D02*
X014831Y006244D01*
X014672Y006403D02*
X017078Y006403D01*
X019519Y006244D02*
X019903Y006244D01*
X019903Y006086D02*
X019678Y006086D01*
X019763Y005927D02*
X019903Y005927D01*
X019903Y005769D02*
X019763Y005769D01*
X019763Y005610D02*
X019903Y005610D01*
X019903Y005452D02*
X019670Y005452D01*
X019511Y005293D02*
X019903Y005293D01*
X019903Y005135D02*
X019629Y005135D01*
X019763Y004976D02*
X019903Y004976D01*
X019903Y004818D02*
X019763Y004818D01*
X019763Y004659D02*
X019903Y004659D01*
X019903Y004501D02*
X019719Y004501D01*
X019903Y003074D02*
X015876Y003074D01*
X016399Y002916D02*
X017026Y002916D01*
X017399Y002916D02*
X018026Y002916D01*
X017795Y002757D02*
X017631Y002757D01*
X018399Y002916D02*
X018736Y002916D01*
X018663Y002757D02*
X018631Y002757D01*
X019689Y002916D02*
X019903Y002916D01*
X019903Y002757D02*
X019763Y002757D01*
X019763Y002599D02*
X019903Y002599D01*
X019903Y002440D02*
X019763Y002440D01*
X019763Y002282D02*
X019903Y002282D01*
X019903Y002123D02*
X019763Y002123D01*
X019763Y001965D02*
X019903Y001965D01*
X018663Y001965D02*
X018558Y001965D01*
X017868Y001965D02*
X017558Y001965D01*
X017694Y002123D02*
X017731Y002123D01*
X016868Y001965D02*
X016558Y001965D01*
X016694Y002123D02*
X016731Y002123D01*
X015868Y001965D02*
X015558Y001965D01*
X015694Y002123D02*
X015731Y002123D01*
X014868Y001965D02*
X014558Y001965D01*
X014694Y002123D02*
X014731Y002123D01*
X013868Y001965D02*
X013558Y001965D01*
X013694Y002123D02*
X013731Y002123D01*
X012868Y001965D02*
X012558Y001965D01*
X012694Y002123D02*
X012731Y002123D01*
X011868Y001965D02*
X011058Y001965D01*
X011194Y002123D02*
X011731Y002123D01*
X011666Y002282D02*
X011260Y002282D01*
X011263Y002440D02*
X011663Y002440D01*
X011670Y002599D02*
X011701Y002599D01*
X011255Y002599D02*
X011225Y002599D01*
X011133Y002757D02*
X011131Y002757D01*
X011077Y002916D02*
X010899Y002916D01*
X010919Y003074D02*
X010313Y003074D01*
X010491Y002916D02*
X010526Y002916D01*
X010760Y003233D02*
X010135Y003233D01*
X009956Y003391D02*
X010602Y003391D01*
X010443Y003550D02*
X009778Y003550D01*
X010126Y003867D02*
X008375Y003867D01*
X008446Y003708D02*
X010285Y003708D01*
X009829Y004025D02*
X000644Y004025D01*
X000644Y003867D02*
X007800Y003867D01*
X007730Y003708D02*
X004860Y003708D01*
X005128Y003550D02*
X007741Y003550D01*
X007838Y003391D02*
X005266Y003391D01*
X005332Y003233D02*
X008163Y003233D01*
X007899Y002916D02*
X008526Y002916D01*
X008295Y002757D02*
X008131Y002757D01*
X007526Y002916D02*
X006898Y002916D01*
X006733Y002916D02*
X006693Y002916D01*
X006693Y002757D02*
X006733Y002757D01*
X006527Y002916D02*
X005898Y002916D01*
X005733Y002916D02*
X005693Y002916D01*
X005693Y002757D02*
X005733Y002757D01*
X005527Y002916D02*
X005363Y002916D01*
X005363Y003074D02*
X009591Y003074D01*
X009526Y002916D02*
X008899Y002916D01*
X009131Y002757D02*
X009295Y002757D01*
X009231Y002123D02*
X009194Y002123D01*
X009058Y001965D02*
X009368Y001965D01*
X010058Y001965D02*
X010368Y001965D01*
X010231Y002123D02*
X010194Y002123D01*
X011463Y002898D02*
X010088Y004273D01*
X009737Y004184D02*
X000644Y004184D01*
X000644Y004342D02*
X009730Y004342D01*
X009809Y004501D02*
X000644Y004501D01*
X000644Y004659D02*
X009862Y004659D01*
X009703Y004818D02*
X000644Y004818D01*
X000644Y004976D02*
X009545Y004976D01*
X009386Y005135D02*
X002614Y005135D01*
X002665Y005156D02*
X002766Y005257D01*
X002820Y005388D01*
X002820Y005530D01*
X002766Y005661D01*
X002665Y005762D01*
X002534Y005816D01*
X002392Y005816D01*
X002261Y005762D01*
X002160Y005661D01*
X002106Y005530D01*
X002106Y005388D01*
X002160Y005257D01*
X002261Y005156D01*
X002392Y005102D01*
X002534Y005102D01*
X002665Y005156D01*
X002781Y005293D02*
X009228Y005293D01*
X009069Y005452D02*
X002820Y005452D01*
X002787Y005610D02*
X008911Y005610D01*
X008756Y005769D02*
X002648Y005769D01*
X002278Y005769D02*
X000644Y005769D01*
X000644Y005927D02*
X008723Y005927D01*
X008723Y006086D02*
X000644Y006086D01*
X000644Y006244D02*
X003140Y006244D01*
X003144Y006237D02*
X003177Y006204D01*
X003218Y006180D01*
X003264Y006168D01*
X004008Y006168D01*
X004008Y007068D01*
X004168Y007068D01*
X004168Y007228D01*
X004008Y007228D01*
X004008Y008128D01*
X003264Y008128D01*
X003218Y008116D01*
X003177Y008092D01*
X003144Y008058D01*
X003120Y008017D01*
X003108Y007972D01*
X003108Y007228D01*
X004008Y007228D01*
X004008Y007068D01*
X003108Y007068D01*
X003108Y006324D01*
X003120Y006278D01*
X003144Y006237D01*
X003108Y006403D02*
X000645Y006403D01*
X000645Y006561D02*
X002233Y006561D01*
X002261Y006534D02*
X002160Y006635D01*
X002106Y006766D01*
X002106Y006908D01*
X002160Y007039D01*
X002261Y007140D01*
X002392Y007194D01*
X002534Y007194D01*
X002665Y007140D01*
X002766Y007039D01*
X002820Y006908D01*
X002820Y006766D01*
X002766Y006635D01*
X002665Y006534D01*
X002534Y006480D01*
X002392Y006480D01*
X002261Y006534D01*
X002125Y006720D02*
X000645Y006720D01*
X000645Y006878D02*
X002106Y006878D01*
X002159Y007037D02*
X000645Y007037D01*
X000645Y007195D02*
X004008Y007195D01*
X004088Y007148D02*
X005713Y005773D01*
X005032Y006237D02*
X005056Y006278D01*
X005068Y006324D01*
X005068Y007068D01*
X004168Y007068D01*
X004168Y006168D01*
X004912Y006168D01*
X004957Y006180D01*
X004998Y006204D01*
X005032Y006237D01*
X005036Y006244D02*
X008723Y006244D01*
X008723Y006403D02*
X005068Y006403D01*
X005068Y006561D02*
X008723Y006561D01*
X008723Y006720D02*
X005068Y006720D01*
X005068Y006878D02*
X008723Y006878D01*
X008723Y007037D02*
X005068Y007037D01*
X005068Y007228D02*
X005068Y007972D01*
X005056Y008017D01*
X005032Y008058D01*
X004998Y008092D01*
X004957Y008116D01*
X004912Y008128D01*
X004168Y008128D01*
X004168Y007228D01*
X005068Y007228D01*
X005068Y007354D02*
X008954Y007354D01*
X009113Y007512D02*
X005068Y007512D01*
X005068Y007671D02*
X009230Y007671D01*
X009275Y007829D02*
X005068Y007829D01*
X005063Y007988D02*
X009473Y007988D01*
X008796Y007195D02*
X004168Y007195D01*
X004168Y007037D02*
X004008Y007037D01*
X004008Y006878D02*
X004168Y006878D01*
X004168Y006720D02*
X004008Y006720D01*
X004008Y006561D02*
X004168Y006561D01*
X004168Y006403D02*
X004008Y006403D01*
X004008Y006244D02*
X004168Y006244D01*
X003108Y006561D02*
X002692Y006561D01*
X002801Y006720D02*
X003108Y006720D01*
X003108Y006878D02*
X002820Y006878D01*
X002767Y007037D02*
X003108Y007037D01*
X003108Y007354D02*
X000645Y007354D01*
X000645Y007512D02*
X003108Y007512D01*
X003108Y007671D02*
X000645Y007671D01*
X000645Y007829D02*
X003108Y007829D01*
X003112Y007988D02*
X000645Y007988D01*
X000645Y008146D02*
X011973Y008146D01*
X011973Y008305D02*
X000645Y008305D01*
X000645Y008463D02*
X011973Y008463D01*
X011973Y008622D02*
X000645Y008622D01*
X000645Y008780D02*
X011973Y008780D01*
X011973Y008939D02*
X000645Y008939D01*
X000645Y009097D02*
X011973Y009097D01*
X011973Y009256D02*
X000646Y009256D01*
X000646Y009414D02*
X011973Y009414D01*
X011973Y009573D02*
X000646Y009573D01*
X000646Y009731D02*
X011973Y009731D01*
X011973Y009890D02*
X000646Y009890D01*
X000646Y010048D02*
X011973Y010048D01*
X011973Y010207D02*
X000646Y010207D01*
X000646Y010365D02*
X011973Y010365D01*
X011973Y010524D02*
X000646Y010524D01*
X000646Y010682D02*
X003111Y010682D01*
X003128Y010665D02*
X003396Y010554D01*
X004780Y010554D01*
X005047Y010665D01*
X005252Y010870D01*
X005363Y011137D01*
X005363Y011426D01*
X005252Y011694D01*
X005047Y011898D01*
X004780Y012009D01*
X003396Y012009D01*
X003128Y011898D01*
X002924Y011694D01*
X002813Y011426D01*
X002813Y011137D01*
X002924Y010870D01*
X003128Y010665D01*
X002952Y010841D02*
X000646Y010841D01*
X000646Y010999D02*
X002870Y010999D01*
X002813Y011158D02*
X000646Y011158D01*
X000768Y011223D02*
X000663Y011328D01*
X000663Y012217D01*
X000768Y012323D01*
X001657Y012323D01*
X001763Y012217D01*
X001763Y012089D01*
X001793Y012131D01*
X001855Y012192D01*
X001925Y012243D01*
X002002Y012283D01*
X002084Y012309D01*
X002170Y012323D01*
X002193Y012323D01*
X002193Y011793D01*
X002233Y011793D01*
X002763Y011793D01*
X002763Y011816D01*
X002749Y011902D01*
X002723Y011984D01*
X002683Y012061D01*
X002632Y012131D01*
X002571Y012192D01*
X002501Y012243D01*
X002424Y012283D01*
X002342Y012309D01*
X002256Y012323D01*
X002233Y012323D01*
X002233Y011793D01*
X002233Y011753D01*
X002763Y011753D01*
X002763Y011730D01*
X002749Y011644D01*
X002723Y011562D01*
X002683Y011485D01*
X002632Y011415D01*
X002571Y011353D01*
X002501Y011302D01*
X002424Y011263D01*
X002342Y011236D01*
X002256Y011223D01*
X002233Y011223D01*
X002233Y011753D01*
X002193Y011753D01*
X002193Y011223D01*
X002170Y011223D01*
X002084Y011236D01*
X002002Y011263D01*
X001925Y011302D01*
X001855Y011353D01*
X001793Y011415D01*
X001763Y011457D01*
X001763Y011328D01*
X001657Y011223D01*
X000768Y011223D01*
X000675Y011316D02*
X000646Y011316D01*
X000646Y011475D02*
X000663Y011475D01*
X000646Y011633D02*
X000663Y011633D01*
X000646Y011792D02*
X000663Y011792D01*
X000646Y011950D02*
X000663Y011950D01*
X000647Y012109D02*
X000663Y012109D01*
X000647Y012267D02*
X000713Y012267D01*
X000647Y012426D02*
X013276Y012426D01*
X013435Y012584D02*
X000647Y012584D01*
X001713Y012267D02*
X001972Y012267D01*
X002193Y012267D02*
X002233Y012267D01*
X002233Y012109D02*
X002193Y012109D01*
X002193Y011950D02*
X002233Y011950D01*
X002233Y011792D02*
X003022Y011792D01*
X003254Y011950D02*
X002733Y011950D01*
X002649Y012109D02*
X005913Y012109D01*
X005913Y011950D02*
X004922Y011950D01*
X005154Y011792D02*
X005913Y011792D01*
X005913Y011633D02*
X005277Y011633D01*
X005343Y011475D02*
X005913Y011475D01*
X005925Y011316D02*
X005363Y011316D01*
X005363Y011158D02*
X007738Y011158D01*
X007897Y010999D02*
X005306Y010999D01*
X005223Y010841D02*
X008055Y010841D01*
X008134Y010762D02*
X008134Y010762D01*
X008231Y010682D02*
X005065Y010682D01*
X007001Y011316D02*
X007142Y011316D01*
X007021Y012109D02*
X007013Y012109D01*
X006963Y012267D02*
X007219Y012267D01*
X007706Y012267D02*
X008222Y012267D01*
X008443Y012267D02*
X008483Y012267D01*
X008483Y012109D02*
X008443Y012109D01*
X008443Y011950D02*
X008483Y011950D01*
X008483Y011792D02*
X009163Y011792D01*
X009013Y011753D02*
X008483Y011753D01*
X008483Y011223D01*
X008506Y011223D01*
X008592Y011236D01*
X008674Y011263D01*
X008751Y011302D01*
X008821Y011353D01*
X008882Y011415D01*
X008933Y011485D01*
X008973Y011562D01*
X008999Y011644D01*
X009013Y011730D01*
X009013Y011753D01*
X008996Y011633D02*
X009163Y011633D01*
X009163Y011475D02*
X008926Y011475D01*
X008770Y011316D02*
X009175Y011316D01*
X009163Y011328D02*
X009268Y011223D01*
X010157Y011223D01*
X010263Y011328D01*
X010263Y011445D01*
X010401Y011307D01*
X010603Y011223D01*
X010822Y011223D01*
X011024Y011307D01*
X011179Y011461D01*
X011263Y011663D01*
X011263Y011882D01*
X011179Y012084D01*
X011024Y012239D01*
X010822Y012323D01*
X010603Y012323D01*
X010401Y012239D01*
X010263Y012101D01*
X010263Y012217D01*
X010157Y012323D01*
X009268Y012323D01*
X009163Y012217D01*
X009163Y011328D01*
X008483Y011316D02*
X008443Y011316D01*
X008443Y011475D02*
X008483Y011475D01*
X008483Y011633D02*
X008443Y011633D01*
X008417Y011158D02*
X012120Y011158D01*
X011425Y011316D02*
X011034Y011316D01*
X011185Y011475D02*
X011413Y011475D01*
X011413Y011633D02*
X011250Y011633D01*
X011263Y011792D02*
X011413Y011792D01*
X011413Y011950D02*
X011235Y011950D01*
X011155Y012109D02*
X011413Y012109D01*
X011463Y012267D02*
X010956Y012267D01*
X010469Y012267D02*
X010213Y012267D01*
X010263Y012109D02*
X010271Y012109D01*
X009213Y012267D02*
X008704Y012267D01*
X008899Y012109D02*
X009163Y012109D01*
X009163Y011950D02*
X008983Y011950D01*
X008027Y012109D02*
X007905Y012109D01*
X005963Y012267D02*
X002454Y012267D01*
X001777Y012109D02*
X001763Y012109D01*
X002193Y011633D02*
X002233Y011633D01*
X002233Y011475D02*
X002193Y011475D01*
X002193Y011316D02*
X002233Y011316D01*
X002520Y011316D02*
X002813Y011316D01*
X002833Y011475D02*
X002676Y011475D01*
X002746Y011633D02*
X002899Y011633D01*
X001905Y011316D02*
X001751Y011316D01*
X004008Y007988D02*
X004168Y007988D01*
X004168Y007829D02*
X004008Y007829D01*
X004008Y007671D02*
X004168Y007671D01*
X004168Y007512D02*
X004008Y007512D01*
X004008Y007354D02*
X004168Y007354D01*
X002139Y005610D02*
X000644Y005610D01*
X000644Y005452D02*
X002106Y005452D01*
X002145Y005293D02*
X000644Y005293D01*
X000644Y005135D02*
X002312Y005135D01*
X003316Y003708D02*
X000644Y003708D01*
X000644Y003550D02*
X003047Y003550D01*
X002909Y003391D02*
X000643Y003391D01*
X000643Y003233D02*
X002844Y003233D01*
X002813Y003074D02*
X000643Y003074D01*
X000643Y002916D02*
X002813Y002916D01*
X002859Y002757D02*
X000643Y002757D01*
X000643Y002599D02*
X002927Y002599D01*
X003085Y002440D02*
X000643Y002440D01*
X000643Y002282D02*
X005174Y002282D01*
X005176Y002269D02*
X005203Y002187D01*
X005242Y002110D01*
X005293Y002040D01*
X005355Y001978D01*
X005425Y001927D01*
X005502Y001888D01*
X005584Y001861D01*
X005670Y001848D01*
X005693Y001848D01*
X005693Y002378D01*
X005163Y002378D01*
X005163Y002355D01*
X005176Y002269D01*
X005235Y002123D02*
X000643Y002123D01*
X000643Y001965D02*
X005373Y001965D01*
X005693Y001965D02*
X005733Y001965D01*
X005733Y002123D02*
X005693Y002123D01*
X005693Y002282D02*
X005733Y002282D01*
X005733Y002440D02*
X005693Y002440D01*
X005693Y002599D02*
X005733Y002599D01*
X006131Y002757D02*
X006295Y002757D01*
X006693Y002599D02*
X006733Y002599D01*
X006733Y002440D02*
X006693Y002440D01*
X006693Y002282D02*
X006733Y002282D01*
X006733Y002123D02*
X006693Y002123D01*
X006693Y001965D02*
X006733Y001965D01*
X007053Y001965D02*
X007368Y001965D01*
X007231Y002123D02*
X007190Y002123D01*
X006373Y001965D02*
X006053Y001965D01*
X006190Y002123D02*
X006235Y002123D01*
X007131Y002757D02*
X007295Y002757D01*
X008194Y002123D02*
X008231Y002123D01*
X008368Y001965D02*
X008058Y001965D01*
X005163Y002440D02*
X005091Y002440D01*
X013267Y007988D02*
X016483Y007988D01*
X016626Y008146D02*
X013426Y008146D01*
X013584Y008305D02*
X016769Y008305D01*
X016911Y008463D02*
X013743Y008463D01*
X013901Y008622D02*
X017054Y008622D01*
X017197Y008780D02*
X014060Y008780D01*
X014218Y008939D02*
X014333Y008939D01*
X014592Y008939D02*
X017339Y008939D01*
X017482Y009097D02*
X014778Y009097D01*
X014821Y009256D02*
X017625Y009256D01*
X017765Y009414D02*
X014792Y009414D01*
X014669Y009573D02*
X018506Y009573D01*
X018919Y009573D02*
X019203Y009573D01*
X019203Y009414D02*
X019042Y009414D01*
X019071Y009256D02*
X019078Y009256D01*
X019497Y008939D02*
X019903Y008939D01*
X019903Y009097D02*
X019655Y009097D01*
X019723Y009256D02*
X019903Y009256D01*
X019903Y009414D02*
X019723Y009414D01*
X019723Y009573D02*
X019903Y009573D01*
X019903Y009731D02*
X019723Y009731D01*
X019723Y009890D02*
X019903Y009890D01*
X019903Y010048D02*
X019723Y010048D01*
X019723Y010207D02*
X019903Y010207D01*
X019903Y010365D02*
X019723Y010365D01*
X019723Y010524D02*
X019903Y010524D01*
X019903Y010682D02*
X019723Y010682D01*
X019638Y010841D02*
X019903Y010841D01*
X019903Y010999D02*
X019479Y010999D01*
X019903Y011158D02*
X016196Y011158D01*
X016534Y011316D02*
X016925Y011316D01*
X016913Y011475D02*
X016685Y011475D01*
X016750Y011633D02*
X016913Y011633D01*
X016913Y011792D02*
X016763Y011792D01*
X016735Y011950D02*
X016913Y011950D01*
X016913Y012109D02*
X016655Y012109D01*
X017986Y012589D02*
X019903Y012589D01*
X019903Y012103D01*
X019882Y012131D01*
X019821Y012192D01*
X019751Y012243D01*
X019674Y012283D01*
X019592Y012309D01*
X019506Y012323D01*
X019483Y012323D01*
X019483Y011793D01*
X019443Y011793D01*
X019443Y012323D01*
X019420Y012323D01*
X019334Y012309D01*
X019252Y012283D01*
X019175Y012243D01*
X019105Y012192D01*
X019043Y012131D01*
X018992Y012061D01*
X018963Y012003D01*
X018929Y012084D01*
X018774Y012239D01*
X018572Y012323D01*
X018353Y012323D01*
X018282Y012293D01*
X017986Y012589D01*
X017991Y012584D02*
X019903Y012584D01*
X019903Y012426D02*
X018149Y012426D01*
X018706Y012267D02*
X019222Y012267D01*
X019443Y012267D02*
X019483Y012267D01*
X019483Y012109D02*
X019443Y012109D01*
X019443Y011950D02*
X019483Y011950D01*
X019704Y012267D02*
X019903Y012267D01*
X019899Y012109D02*
X019903Y012109D01*
X019483Y011633D02*
X019443Y011633D01*
X019443Y011475D02*
X019483Y011475D01*
X019483Y011316D02*
X019443Y011316D01*
X019770Y011316D02*
X019903Y011316D01*
X019155Y011316D02*
X018784Y011316D01*
X018935Y011475D02*
X018999Y011475D01*
X018142Y011316D02*
X018001Y011316D01*
X017821Y010524D02*
X019203Y010524D01*
X019203Y010365D02*
X017785Y010365D01*
X015777Y010841D02*
X014131Y010841D01*
X014270Y011316D02*
X014675Y011316D01*
X014663Y011475D02*
X014426Y011475D01*
X014496Y011633D02*
X014663Y011633D01*
X014663Y011950D02*
X014483Y011950D01*
X014399Y012109D02*
X014663Y012109D01*
X012719Y012267D02*
X012463Y012267D01*
X012513Y012109D02*
X012521Y012109D01*
X010392Y011316D02*
X010251Y011316D01*
X017598Y007988D02*
X017663Y007988D01*
X017675Y008146D02*
X017809Y008146D01*
X017807Y008305D02*
X017967Y008305D01*
X017939Y008463D02*
X019903Y008463D01*
X019903Y008305D02*
X019459Y008305D01*
X019617Y008146D02*
X019903Y008146D01*
X019903Y007988D02*
X019763Y007988D01*
X019763Y007829D02*
X019903Y007829D01*
X019903Y007671D02*
X019763Y007671D01*
X019730Y007512D02*
X019903Y007512D01*
X019903Y007354D02*
X019572Y007354D01*
X019568Y007195D02*
X019903Y007195D01*
X019903Y007037D02*
X019727Y007037D01*
X019763Y006878D02*
X019903Y006878D01*
X019903Y006720D02*
X019763Y006720D01*
X019763Y006561D02*
X019903Y006561D01*
X019903Y006403D02*
X019621Y006403D01*
X018809Y008146D02*
X018617Y008146D01*
X018459Y008305D02*
X018967Y008305D01*
X019338Y008780D02*
X019903Y008780D01*
X019903Y008622D02*
X018071Y008622D01*
X018905Y012109D02*
X019027Y012109D01*
X016795Y002757D02*
X016631Y002757D01*
D18*
X011463Y002898D03*
X010088Y004273D03*
X008213Y004898D03*
X008088Y003648D03*
X012588Y006148D03*
X013463Y006773D03*
X013338Y007398D03*
X012588Y007648D03*
X014463Y009273D03*
X013963Y010523D03*
X017463Y010523D03*
X018713Y009273D03*
X015713Y006773D03*
X010088Y006898D03*
X009713Y007148D03*
X009588Y007648D03*
X008088Y010273D03*
D19*
X008338Y010898D02*
X011963Y010898D01*
X012213Y010648D01*
X012213Y010898D01*
X012963Y011773D01*
X013588Y012398D01*
X017838Y012398D01*
X018463Y011773D01*
X017463Y010523D02*
X013963Y010523D01*
X012213Y010648D02*
X012213Y006523D01*
X012588Y006148D01*
X013463Y006773D02*
X015213Y005023D01*
X015213Y002398D01*
X015463Y003148D02*
X016213Y002398D01*
X015463Y003148D02*
X015463Y005273D01*
X013338Y007398D01*
X012588Y007648D02*
X014213Y009273D01*
X014463Y009273D01*
X015713Y006773D02*
X017963Y009273D01*
X018713Y009273D01*
X010088Y006898D02*
X009713Y006523D01*
X009713Y005898D01*
X012463Y003148D01*
X013463Y003148D01*
X014213Y002398D01*
X013213Y002398D02*
X012713Y002898D01*
X012338Y002898D01*
X009338Y005898D01*
X009338Y006773D01*
X009713Y007148D01*
X009588Y007648D02*
X008963Y007023D01*
X008963Y005898D01*
X012213Y002648D01*
X012213Y002398D01*
X010713Y002398D02*
X009588Y003398D01*
X008338Y003398D01*
X008088Y003648D01*
X008338Y010898D02*
X007463Y011773D01*
M02*
